IDG_DREAM
…
## 
##          =          >          <         <=         >=          ~ 
##    3168082     338003      58305       3589       2253        618 
##         >>         h=         --          - APPR.EQUAL         << 
##        228        202         16         11          9          7 
##         ~~ 
##          1

standard_type

ta=table(dat$standard_type) %>% sort(decreasing = T)
data_frame(standard_type=names(ta), count=ta)

## # A tibble: 1,506 x 2
##    standard_type count      
##    <chr>         <S3: table>
##  1 POTENCY       2956515    
##  2 IC50          1001588    
##  3 KI            " 620898"  
##  4 INHIBITION    " 442241"  
##  5 ACTIVITY      " 246113"  
##  6 EC50          " 141463"  
##  7 AC50          " 107442"  
##  8 KD            "  75594"  
##  9 Ki            "  20922"  
## 10 RATIO         "  17373"  
## # ... with 1,496 more rows
…
